SignalProcessing/csvs/splg0016.csv

File Type,Sample logger
File Version,1
Model Number,SDS1104X-E
Serial Number,SDSMMFCD4R7762
Software Version,8.1.6.1.37R10
Start Time,49:07.4
Sample Interval,2.000000E-004
Number of Points,82200
Number of channels,1
Source,CH1
Vertical Scale,1.00E-02
Vertical Offset,4.00E-04
Vertical Units,V
Time,CH1 Value
0.00E+00,-1.92E-02
2.00E-04,-7.20E-03
4.00E-04,1.04E-02
6.00E-04,-2.00E-03
8.00E-04,5.20E-03
1.00E-03,-4.00E-03
1.20E-03,-1.12E-02
1.40E-03,-2.04E-02
1.60E-03,1.96E-02
1.80E-03,-8.00E-03
2.00E-03,1.28E-02
2.20E-03,4.40E-03
2.40E-03,1.52E-02
2.60E-03,2.32E-02
2.80E-03,2.80E-03
3.00E-03,1.20E-02
3.20E-03,-4.80E-03
3.40E-03,-1.36E-02
3.60E-03,-4.00E-03
3.80E-03,4.00E-03
4.00E-03,-6.80E-03
4.20E-03,-1.20E-02
4.40E-03,7.20E-03
4.60E-03,9.20E-03
4.80E-03,3.60E-03
5.00E-03,2.40E-03
5.20E-03,2.08E-02
5.40E-03,-4.80E-03
5.60E-03,2.88E-02
5.80E-03,6.00E-03
6.00E-03,-3.20E-03
6.20E-03,-7.20E-03
6.40E-03,-1.60E-03
6.60E-03,-9.60E-03
6.80E-03,-5.20E-03
7.00E-03,3.60E-03
7.20E-03,-8.40E-03
7.40E-03,-3.60E-03
7.60E-03,6.80E-03
7.80E-03,-2.40E-03
8.00E-03,-1.64E-02
8.20E-03,-5.20E-03
8.40E-03,1.96E-02
8.60E-03,-2.36E-02
8.80E-03,-4.00E-03
9.00E-03,-1.76E-02
9.20E-03,-2.24E-02
9.40E-03,1.92E-02
9.60E-03,-1.76E-02
9.80E-03,-2.04E-02
1.00E-02,-2.00E-03
1.02E-02,-6.00E-03
1.04E-02,-1.80E-02
1.06E-02,-8.40E-03
1.08E-02,1.96E-02
1.10E-02,-1.16E-02
1.12E-02,-7.20E-03
1.14E-02,2.12E-02
1.16E-02,2.00E-03
1.18E-02,6.00E-03
1.20E-02,-1.20E-02
1.22E-02,2.20E-02
1.24E-02,-2.80E-03
1.26E-02,-6.80E-03
1.28E-02,3.20E-03
1.30E-02,-1.44E-02
1.32E-02,-6.80E-03
1.34E-02,3.20E-03
1.36E-02,8.00E-04
1.38E-02,5.20E-03
1.40E-02,8.80E-03
1.42E-02,1.92E-02
1.44E-02,1.04E-02
1.46E-02,6.80E-03
1.48E-02,-5.60E-03
1.50E-02,3.20E-03
1.52E-02,-6.00E-03
1.54E-02,-2.40E-03
1.56E-02,8.00E-03
1.58E-02,2.40E-03
1.60E-02,-1.16E-02
1.62E-02,8.00E-04
1.64E-02,-6.40E-03
1.66E-02,-2.40E-03
1.68E-02,-1.40E-02
1.70E-02,2.08E-02
1.72E-02,8.00E-03
1.74E-02,1.48E-02
1.76E-02,1.08E-02
1.78E-02,4.80E-03
1.80E-02,-1.72E-02
1.82E-02,-2.32E-02
1.84E-02,-1.44E-02
1.86E-02,1.00E-02
1.88E-02,-1.32E-02
1.90E-02,1.72E-02
1.92E-02,-4.40E-03
1.94E-02,2.00E-03
1.96E-02,-6.00E-03
1.98E-02,-1.64E-02
2.00E-02,1.72E-02
2.02E-02,7.20E-03
2.04E-02,-1.60E-03
2.06E-02,-1.60E-03
2.08E-02,9.60E-03
2.10E-02,-6.40E-03
2.12E-02,-1.72E-02
2.14E-02,-2.08E-02
2.16E-02,4.00E-03
2.18E-02,-8.80E-03
2.20E-02,-1.00E-02
2.22E-02,-3.60E-03
2.24E-02,-1.40E-02
2.26E-02,2.56E-02
2.28E-02,-1.88E-02
2.30E-02,1.68E-02
2.32E-02,-4.80E-03
2.34E-02,1.52E-02
2.36E-02,-6.80E-03
2.38E-02,-1.32E-02
2.40E-02,1.72E-02
2.42E-02,-1.08E-02
2.44E-02,-2.84E-02
2.46E-02,5.60E-03
2.48E-02,-2.00E-02
2.50E-02,-6.80E-03
2.52E-02,-1.36E-02
2.54E-02,-8.00E-03
2.56E-02,1.04E-02
2.58E-02,2.00E-03
2.60E-02,3.20E-03
2.62E-02,2.76E-02
2.64E-02,1.72E-02
2.66E-02,-4.00E-03
2.68E-02,2.80E-02
2.70E-02,7.60E-03
2.72E-02,-4.80E-03
2.74E-02,-2.52E-02
2.76E-02,2.00E-03
2.78E-02,2.32E-02
2.80E-02,-7.60E-03
2.82E-02,1.56E-02
2.84E-02,1.60E-03
2.86E-02,1.16E-02
2.88E-02,6.00E-03
2.90E-02,-5.60E-03
2.92E-02,-6.40E-03
2.94E-02,-1.16E-02
2.96E-02,-3.60E-03
2.98E-02,2.80E-03
3.00E-02,1.28E-02
3.02E-02,-2.80E-03
3.04E-02,1.28E-02
3.06E-02,-5.60E-03
3.08E-02,1.12E-02
3.10E-02,3.20E-03
3.12E-02,-8.40E-03
3.14E-02,2.00E-03
3.16E-02,1.88E-02
3.18E-02,-1.32E-02
3.20E-02,-2.44E-02
3.22E-02,-1.76E-02
3.24E-02,-2.80E-03
3.26E-02,-1.44E-02
3.28E-02,-2.00E-02
3.30E-02,2.40E-03
3.32E-02,-3.20E-03
3.34E-02,2.40E-02
3.36E-02,3.20E-03
3.38E-02,1.76E-02
3.40E-02,-1.00E-02
3.42E-02,2.80E-03
3.44E-02,-2.08E-02
3.46E-02,1.28E-02
3.48E-02,1.48E-02
3.50E-02,-1.60E-03
3.52E-02,1.88E-02
3.54E-02,2.28E-02
3.56E-02,7.20E-03
3.58E-02,4.80E-03
3.60E-02,-2.00E-03
3.62E-02,2.48E-02
3.64E-02,6.80E-03
3.66E-02,-1.84E-02
3.68E-02,9.20E-03
3.70E-02,-2.64E-02
3.72E-02,-2.80E-03
3.74E-02,5.20E-03
3.76E-02,1.52E-02
3.78E-02,-6.80E-03
3.80E-02,1.20E-02
3.82E-02,8.00E-03
3.84E-02,1.24E-02
3.86E-02,-8.40E-03
3.88E-02,-2.28E-02
3.90E-02,4.00E-03
3.92E-02,2.04E-02
3.94E-02,-9.20E-03
3.96E-02,1.92E-02
3.98E-02,1.20E-02
4.00E-02,1.24E-02
4.02E-02,2.80E-03
4.04E-02,5.60E-03
4.06E-02,8.00E-03
4.08E-02,4.40E-03
4.10E-02,1.64E-02
4.12E-02,3.60E-03
4.14E-02,-1.12E-02
4.16E-02,-2.00E-02
4.18E-02,-2.40E-03
4.20E-02,-7.20E-03
4.22E-02,-3.20E-03
4.24E-02,1.92E-02
4.26E-02,1.60E-02
4.28E-02,2.80E-03
4.30E-02,-1.04E-02
4.32E-02,-1.04E-02
4.34E-02,9.20E-03
4.36E-02,6.00E-03
4.38E-02,-1.20E-02
4.40E-02,-3.20E-03
4.42E-02,-1.80E-02
4.44E-02,-1.08E-02
4.46E-02,2.40E-03
4.48E-02,-1.28E-02
4.50E-02,7.20E-03
4.52E-02,1.40E-02
4.54E-02,8.40E-03
4.56E-02,6.00E-03
4.58E-02,6.00E-03
4.60E-02,-3.60E-03
4.62E-02,1.20E-03
4.64E-02,-4.80E-03
4.66E-02,-1.36E-02
4.68E-02,2.40E-03
4.70E-02,8.80E-03
4.72E-02,-5.60E-03
4.74E-02,-1.00E-02
4.76E-02,1.36E-02
4.78E-02,2.00E-03
4.80E-02,-2.00E-02
4.82E-02,1.40E-02
4.84E-02,-1.60E-02
4.86E-02,-1.52E-02
4.88E-02,1.08E-02
4.90E-02,-1.20E-03
4.92E-02,-3.20E-03
4.94E-02,4.00E-03
4.96E-02,2.40E-03
4.98E-02,6.00E-03
5.00E-02,3.60E-03
5.02E-02,4.80E-03
5.04E-02,-8.00E-03
5.06E-02,-1.00E-02
5.08E-02,-4.00E-03
5.10E-02,-1.24E-02
5.12E-02,1.32E-02
5.14E-02,-1.80E-02
5.16E-02,9.60E-03
5.18E-02,4.00E-03
5.20E-02,-1.72E-02
5.22E-02,1.00E-02
5.24E-02,9.60E-03
5.26E-02,1.44E-02
5.28E-02,1.44E-02
5.30E-02,-6.80E-03
5.32E-02,2.80E-03
5.34E-02,-1.08E-02
5.36E-02,-8.00E-03
5.38E-02,1.04E-02
5.40E-02,-2.80E-03
5.42E-02,9.20E-03
5.44E-02,-8.80E-03
5.46E-02,-5.20E-03
5.48E-02,-1.20E-02
5.50E-02,-1.36E-02
5.52E-02,-8.00E-03
5.54E-02,-1.80E-02
5.56E-02,-3.20E-03
5.58E-02,3.60E-03
5.60E-02,-6.00E-03
5.62E-02,1.20E-03
5.64E-02,9.20E-03
5.66E-02,-7.20E-03
5.68E-02,-4.00E-03
5.70E-02,2.68E-02
5.72E-02,1.60E-03
5.74E-02,-1.68E-02
5.76E-02,-1.16E-02
5.78E-02,-1.88E-02
5.80E-02,-7.20E-03
5.82E-02,6.40E-03
5.84E-02,3.60E-03
5.86E-02,1.40E-02
5.88E-02,-6.00E-03
5.90E-02,-4.40E-03
5.92E-02,5.20E-03
5.94E-02,3.20E-03
5.96E-02,-1.40E-02
5.98E-02,2.40E-03
6.00E-02,-3.20E-03
6.02E-02,-1.08E-02
6.04E-02,2.28E-02
6.06E-02,-3.60E-03
6.08E-02,-1.52E-02
6.10E-02,-6.80E-03
6.12E-02,-7.60E-03
6.14E-02,-1.04E-02
6.16E-02,-7.20E-03
6.18E-02,-3.20E-03
6.20E-02,1.32E-02
6.22E-02,-1.60E-03
6.24E-02,-2.40E-02
6.26E-02,2.12E-02
6.28E-02,3.60E-03
6.30E-02,1.28E-02
6.32E-02,8.00E-03
6.34E-02,-6.00E-03
6.36E-02,4.40E-03
6.38E-02,-1.12E-02
6.40E-02,3.60E-03
6.42E-02,-1.60E-03
6.44E-02,-1.76E-02
6.46E-02,1.04E-02
6.48E-02,8.40E-03
6.50E-02,1.24E-02
6.52E-02,6.00E-03
6.54E-02,2.32E-02
6.56E-02,1.04E-02
6.58E-02,2.40E-03
6.60E-02,-1.44E-02
6.62E-02,3.60E-03
6.64E-02,-2.80E-03
6.66E-02,-2.16E-02
6.68E-02,-1.92E-02
6.70E-02,4.40E-03
6.72E-02,6.80E-03
6.74E-02,1.92E-02
6.76E-02,-7.20E-03
6.78E-02,7.60E-03
6.80E-02,-2.36E-02
6.82E-02,-2.80E-03
6.84E-02,-1.04E-02
6.86E-02,-3.60E-03
6.88E-02,1.28E-02
6.90E-02,4.80E-03
6.92E-02,-2.08E-02
6.94E-02,-9.20E-03
6.96E-02,9.60E-03
6.98E-02,5.60E-03
7.00E-02,-1.40E-02
7.02E-02,2.24E-02
7.04E-02,-5.20E-03
7.06E-02,-1.40E-02
7.08E-02,-5.20E-03
7.10E-02,-6.80E-03
7.12E-02,-9.20E-03
7.14E-02,-2.28E-02
7.16E-02,-1.32E-02
7.18E-02,2.12E-02
7.20E-02,8.00E-04
7.22E-02,-2.80E-03
7.24E-02,2.40E-03
7.26E-02,4.00E-03
7.28E-02,8.40E-03
7.30E-02,2.28E-02
7.32E-02,6.40E-03
7.34E-02,4.40E-03
7.36E-02,1.72E-02
7.38E-02,7.60E-03
7.40E-02,6.80E-03
7.42E-02,1.08E-02
7.44E-02,2.40E-03
7.46E-02,1.96E-02
7.48E-02,2.80E-03
7.50E-02,-4.40E-03
7.52E-02,-6.00E-03
7.54E-02,-7.20E-03
7.56E-02,6.80E-03
7.58E-02,-1.16E-02
7.60E-02,8.40E-03
7.62E-02,-5.60E-03
7.64E-02,-7.20E-03
7.66E-02,-2.36E-02
7.68E-02,2.40E-03
7.70E-02,2.56E-02
7.72E-02,1.64E-02
7.74E-02,-6.00E-03
7.76E-02,4.80E-03
7.78E-02,-7.60E-03
7.80E-02,1.12E-02
7.82E-02,1.16E-02
7.84E-02,-1.40E-02
7.86E-02,1.44E-02
7.88E-02,-1.00E-02
7.90E-02,-1.60E-03
7.92E-02,1.60E-02
7.94E-02,-7.20E-03
7.96E-02,-3.20E-03
7.98E-02,-1.84E-02
8.00E-02,-8.40E-03
8.02E-02,1.92E-02
8.04E-02,2.56E-02
8.06E-02,-1.60E-02
8.08E-02,-4.80E-03
8.10E-02,-7.60E-03
8.12E-02,2.04E-02
8.14E-02,2.40E-03
8.16E-02,1.80E-02
8.18E-02,2.80E-03
8.20E-02,4.80E-03
8.22E-02,1.28E-02
8.24E-02,-8.00E-03
8.26E-02,2.00E-03
8.28E-02,4.40E-03
8.30E-02,-8.80E-03
8.32E-02,2.00E-03
8.34E-02,6.80E-03
8.36E-02,8.40E-03
8.38E-02,-2.12E-02
8.40E-02,-1.00E-02
8.42E-02,-7.60E-03
8.44E-02,1.48E-02
8.46E-02,-8.40E-03
8.48E-02,-7.60E-03
8.50E-02,-2.20E-02
8.52E-02,-1.56E-02
8.54E-02,-9.60E-03
8.56E-02,-8.40E-03
8.58E-02,7.20E-03
8.60E-02,-4.40E-03
8.62E-02,8.40E-03
8.64E-02,9.60E-03
8.66E-02,1.44E-02
8.68E-02,2.80E-03
8.70E-02,-2.80E-03
8.72E-02,8.80E-03
8.74E-02,2.52E-02
8.76E-02,5.20E-03
8.78E-02,1.96E-02
8.80E-02,1.56E-02
8.82E-02,-1.04E-02
8.84E-02,-1.36E-02
8.86E-02,4.40E-03
8.88E-02,1.72E-02
8.90E-02,1.40E-02
8.92E-02,-1.48E-02
8.94E-02,3.60E-03
8.96E-02,-7.20E-03
8.98E-02,-2.80E-03
9.00E-02,1.08E-02
9.02E-02,1.20E-02
9.04E-02,2.12E-02
9.06E-02,-1.24E-02
9.08E-02,1.20E-02
9.10E-02,2.56E-02
9.12E-02,-9.60E-03
9.14E-02,-8.40E-03
9.16E-02,1.60E-03
9.18E-02,-5.20E-03
9.20E-02,1.28E-02
9.22E-02,-8.00E-03
9.24E-02,-6.40E-03
9.26E-02,-8.00E-03
9.28E-02,1.68E-02
9.30E-02,2.00E-03
9.32E-02,-7.60E-03
9.34E-02,-1.24E-02
9.36E-02,5.20E-03
9.38E-02,2.80E-03
9.40E-02,-4.00E-03
9.42E-02,-7.20E-03
9.44E-02,-2.60E-02
9.46E-02,-1.16E-02
9.48E-02,-1.52E-02
9.50E-02,-9.20E-03
9.52E-02,7.60E-03
9.54E-02,9.20E-03
9.56E-02,-4.40E-03
9.58E-02,4.80E-03
9.60E-02,-8.00E-03
9.62E-02,-7.20E-03
9.64E-02,3.20E-03
9.66E-02,6.00E-03
9.68E-02,-6.80E-03
9.70E-02,3.60E-03
9.72E-02,1.96E-02
9.74E-02,2.40E-03
9.76E-02,-1.12E-02
9.78E-02,-1.64E-02
9.80E-02,9.60E-03
9.82E-02,2.16E-02
9.84E-02,2.40E-03
9.86E-02,7.20E-03
9.88E-02,-4.40E-03
9.90E-02,1.20E-03
9.92E-02,-3.60E-03
9.94E-02,2.16E-02
9.96E-02,1.20E-02
9.98E-02,-1.76E-02
1.00E-01,-1.20E-03
1.00E-01,-5.60E-03
1.00E-01,-3.60E-03
1.01E-01,4.40E-03
1.01E-01,-1.32E-02
1.01E-01,1.28E-02
1.01E-01,1.76E-02
1.01E-01,1.80E-02
1.02E-01,5.20E-03
1.02E-01,-2.32E-02
1.02E-01,-1.24E-02
1.02E-01,1.68E-02
1.02E-01,4.00E-03
1.03E-01,6.80E-03
1.03E-01,-7.20E-03
1.03E-01,-1.36E-02
1.03E-01,4.00E-03
1.03E-01,-4.00E-03
1.04E-01,-3.20E-03
1.04E-01,1.76E-02
1.04E-01,-1.16E-02
1.04E-01,2.00E-02
1.04E-01,-4.40E-03
1.05E-01,1.24E-02
1.05E-01,7.20E-03
1.05E-01,-1.60E-02
1.05E-01,4.80E-03
1.05E-01,8.40E-03
1.06E-01,-6.00E-03
1.06E-01,-7.20E-03
1.06E-01,-2.24E-02
1.06E-01,-3.60E-03
1.06E-01,-2.88E-02
1.07E-01,4.40E-03
1.07E-01,-1.32E-02
1.07E-01,-1.96E-02
1.07E-01,-3.20E-03
1.07E-01,-1.56E-02
1.08E-01,-9.60E-03
1.08E-01,9.20E-03
1.08E-01,-4.00E-03
1.08E-01,1.96E-02
1.08E-01,-1.36E-02
1.09E-01,-1.12E-02
1.09E-01,4.80E-03
1.09E-01,8.40E-03
1.09E-01,1.64E-02
1.09E-01,4.40E-03
1.10E-01,1.12E-02
1.10E-01,1.36E-02
1.10E-01,1.80E-02
1.10E-01,-1.96E-02
1.10E-01,1.20E-02
1.11E-01,-8.00E-03
1.11E-01,2.52E-02
1.11E-01,-4.40E-03
1.11E-01,1.48E-02
1.11E-01,9.20E-03
1.12E-01,6.00E-03
1.12E-01,-3.60E-03
1.12E-01,1.08E-02
1.12E-01,-3.60E-03
1.12E-01,-2.40E-03
1.13E-01,-1.80E-02
1.13E-01,8.40E-03
1.13E-01,-2.00E-03
1.13E-01,6.00E-03
1.13E-01,9.60E-03
1.14E-01,-1.24E-02
1.14E-01,-5.20E-03
1.14E-01,1.04E-02
1.14E-01,-3.20E-03
1.14E-01,-2.48E-02
1.15E-01,-1.44E-02
1.15E-01,-1.08E-02
1.15E-01,-8.80E-03
1.15E-01,-1.16E-02
1.15E-01,-3.60E-03
1.16E-01,-7.20E-03
1.16E-01,1.60E-02
1.16E-01,-2.28E-02
1.16E-01,3.60E-03
1.16E-01,2.52E-02
1.17E-01,1.40E-02
1.17E-01,1.04E-02
1.17E-01,2.40E-03
1.17E-01,-1.36E-02
1.17E-01,4.00E-03
1.18E-01,3.20E-03
1.18E-01,6.00E-03
1.18E-01,-1.40E-02
1.18E-01,1.32E-02
1.18E-01,-4.00E-03
1.19E-01,5.60E-03
1.19E-01,-8.40E-03
1.19E-01,5.60E-03
1.19E-01,2.40E-02
1.19E-01,-1.08E-02
1.20E-01,7.20E-03
1.20E-01,2.80E-03
1.20E-01,2.80E-03
1.20E-01,1.32E-02
1.20E-01,6.80E-03
1.21E-01,4.00E-03
1.21E-01,1.60E-03
1.21E-01,1.96E-02
1.21E-01,1.28E-02
1.21E-01,-1.04E-02
1.22E-01,1.88E-02
1.22E-01,-4.80E-03
1.22E-01,-5.60E-03
1.22E-01,-8.00E-03
1.22E-01,-6.00E-03
1.23E-01,1.36E-02
1.23E-01,5.60E-03
1.23E-01,-3.00E-02
1.23E-01,1.52E-02
1.23E-01,4.00E-03
1.24E-01,-8.00E-03
1.24E-01,1.64E-02
1.24E-01,-7.20E-03
1.24E-01,7.60E-03
1.24E-01,-1.20E-03
1.25E-01,-5.20E-03
1.25E-01,-1.56E-02
1.25E-01,-1.12E-02
1.25E-01,-6.80E-03
1.25E-01,-1.60E-03
1.26E-01,-1.08E-02
1.26E-01,-6.80E-03
1.26E-01,-3.20E-03
1.26E-01,1.96E-02
1.26E-01,-1.00E-02
1.27E-01,2.80E-03
1.27E-01,5.60E-03
1.27E-01,-4.40E-03
1.27E-01,4.00E-03
1.27E-01,4.40E-03
1.28E-01,4.40E-03
1.28E-01,-9.20E-03
1.28E-01,-2.80E-03
1.28E-01,6.00E-03
1.28E-01,-1.40E-02
1.29E-01,-8.00E-03
1.29E-01,8.00E-03
1.29E-01,1.80E-02
1.29E-01,2.32E-02
1.29E-01,-1.52E-02
1.30E-01,-1.80E-02
1.30E-01,6.40E-03
1.30E-01,-2.20E-02
1.30E-01,5.20E-03
1.30E-01,-2.04E-02
1.31E-01,6.00E-03
1.31E-01,-3.20E-03
1.31E-01,1.52E-02
1.31E-01,-1.88E-02
1.31E-01,7.20E-03
1.32E-01,2.00E-03
1.32E-01,-7.60E-03
1.32E-01,-1.12E-02
1.32E-01,-2.16E-02
1.32E-01,4.80E-03
1.33E-01,2.16E-02
1.33E-01,1.92E-02
1.33E-01,-5.60E-03
1.33E-01,4.40E-03
1.33E-01,2.40E-03
1.34E-01,2.00E-03
1.34E-01,1.20E-02
1.34E-01,-4.00E-03
1.34E-01,1.60E-03
1.34E-01,-3.60E-03
1.35E-01,1.44E-02
1.35E-01,4.00E-03
1.35E-01,6.00E-03
1.35E-01,-4.00E-03
1.35E-01,-3.60E-03
1.36E-01,-6.00E-03
1.36E-01,-8.40E-03
1.36E-01,9.20E-03
1.36E-01,9.60E-03
1.36E-01,-2.80E-03
1.37E-01,-1.32E-02
1.37E-01,-1.20E-02
1.37E-01,-1.40E-02
1.37E-01,1.28E-02
1.37E-01,-2.40E-03
1.38E-01,-2.80E-03
1.38E-01,-1.72E-02
1.38E-01,-6.00E-03
1.38E-01,-2.00E-02
1.38E-01,-2.00E-03
1.39E-01,-1.08E-02
1.39E-01,-2.08E-02
1.39E-01,4.40E-03
1.39E-01,1.92E-02
1.39E-01,7.20E-03
1.40E-01,-4.40E-03
1.40E-01,-5.20E-03
1.40E-01,-9.20E-03
1.40E-01,1.84E-02
1.40E-01,2.32E-02
1.41E-01,-2.52E-02
1.41E-01,-5.60E-03
1.41E-01,2.68E-02
1.41E-01,7.60E-03
1.41E-01,1.40E-02
1.42E-01,8.80E-03
1.42E-01,-8.00E-03
1.42E-01,-6.00E-03
1.42E-01,-1.04E-02
1.42E-01,1.44E-02
1.43E-01,8.00E-03
1.43E-01,-4.40E-03
1.43E-01,1.08E-02
1.43E-01,-1.32E-02
1.43E-01,1.08E-02
1.44E-01,-5.20E-03
1.44E-01,2.80E-03
1.44E-01,5.60E-03
1.44E-01,1.88E-02
1.44E-01,-1.68E-02
1.45E-01,-1.40E-02
1.45E-01,1.16E-02
1.45E-01,6.00E-03
1.45E-01,-1.12E-02
1.45E-01,-1.36E-02
1.46E-01,-1.44E-02
1.46E-01,-5.20E-03
1.46E-01,-6.80E-03
1.46E-01,2.24E-02
1.46E-01,-4.80E-03
1.47E-01,-7.60E-03
1.47E-01,-1.24E-02
1.47E-01,-6.00E-03
1.47E-01,-4.00E-03
1.47E-01,3.20E-03
1.48E-01,-1.68E-02
1.48E-01,6.40E-03
1.48E-01,-5.20E-03
1.48E-01,1.20E-02
1.48E-01,9.60E-03
1.49E-01,2.00E-03
1.49E-01,-9.60E-03
1.49E-01,8.40E-03
1.49E-01,-1.20E-03
1.49E-01,-1.60E-03
1.50E-01,-2.80E-03
1.50E-01,-7.60E-03
1.50E-01,-7.60E-03
1.50E-01,-1.28E-02
1.50E-01,1.52E-02
1.51E-01,4.00E-03
1.51E-01,-5.20E-03
1.51E-01,2.16E-02
1.51E-01,-4.00E-03
1.51E-01,-6.80E-03
1.52E-01,6.00E-03
1.52E-01,-1.60E-03
1.52E-01,1.52E-02
1.52E-01,4.40E-03
1.52E-01,2.08E-02
1.53E-01,1.16E-02
1.53E-01,3.20E-03
1.53E-01,-1.36E-02
1.53E-01,8.00E-03
1.53E-01,-1.16E-02
1.54E-01,-3.60E-03
1.54E-01,-6.80E-03
1.54E-01,-6.40E-03
1.54E-01,-3.60E-03
1.54E-01,-6.40E-03
1.55E-01,7.60E-03
1.55E-01,7.20E-03
1.55E-01,2.68E-02
1.55E-01,7.20E-03
1.55E-01,-1.60E-02
1.56E-01,1.64E-02
1.56E-01,-1.32E-02
1.56E-01,-8.00E-03
1.56E-01,-5.20E-03
1.56E-01,1.00E-02
1.57E-01,1.68E-02
1.57E-01,2.80E-03
1.57E-01,4.00E-03
1.57E-01,-1.00E-02
1.57E-01,-1.24E-02
1.58E-01,5.60E-03
1.58E-01,-1.00E-02
1.58E-01,-8.00E-04
1.58E-01,-9.60E-03
1.58E-01,-1.16E-02
1.59E-01,1.28E-02
1.59E-01,-7.60E-03
1.59E-01,4.40E-03
1.59E-01,2.80E-03
1.59E-01,-2.12E-02
1.60E-01,-1.60E-02
1.60E-01,1.48E-02
1.60E-01,-1.32E-02
1.60E-01,-1.16E-02
1.60E-01,-4.80E-03
1.61E-01,1.08E-02
1.61E-01,1.84E-02
1.61E-01,-2.80E-03
1.61E-01,-3.60E-03
1.61E-01,-2.00E-03
1.62E-01,7.60E-03
1.62E-01,-1.92E-02
1.62E-01,-9.60E-03
1.62E-01,5.20E-03
1.62E-01,-4.40E-03
1.63E-01,1.72E-02
1.63E-01,-1.52E-02
1.63E-01,-7.20E-03
1.63E-01,-5.60E-03
1.63E-01,-6.00E-03
1.64E-01,2.00E-02
1.64E-01,4.40E-03
1.64E-01,7.60E-03
1.64E-01,-3.20E-03
1.64E-01,4.40E-03
1.65E-01,1.20E-03
1.65E-01,-2.16E-02
1.65E-01,6.00E-03
1.65E-01,-2.00E-02
1.65E-01,7.60E-03
1.66E-01,7.20E-03
1.66E-01,-8.40E-03
1.66E-01,-1.40E-02
1.66E-01,-1.20E-03
1.66E-01,-1.68E-02
1.67E-01,1.72E-02
1.67E-01,-6.80E-03
1.67E-01,4.40E-03
1.67E-01,-1.48E-02
1.67E-01,-1.12E-02
1.68E-01,1.44E-02
1.68E-01,4.40E-03
1.68E-01,2.80E-03
1.68E-01,-8.80E-03
1.68E-01,-1.64E-02
1.69E-01,-6.80E-03
1.69E-01,8.80E-03
1.69E-01,1.32E-02
1.69E-01,-8.00E-03
1.69E-01,-7.60E-03
1.70E-01,4.00E-03
1.70E-01,1.08E-02
1.70E-01,2.40E-03
1.70E-01,7.20E-03
1.70E-01,3.20E-03
1.71E-01,3.20E-03
1.71E-01,-1.88E-02
1.71E-01,1.32E-02
1.71E-01,2.40E-03
1.71E-01,-1.72E-02
1.72E-01,4.40E-03
1.72E-01,8.00E-03
1.72E-01,1.16E-02
1.72E-01,-3.20E-03
1.72E-01,1.40E-02
1.73E-01,-1.52E-02
1.73E-01,6.00E-03
1.73E-01,8.00E-03
1.73E-01,-1.28E-02
1.73E-01,-2.00E-03
1.74E-01,3.20E-03
1.74E-01,-1.40E-02
1.74E-01,3.20E-03
1.74E-01,1.08E-02
1.74E-01,-1.08E-02
1.75E-01,-1.84E-02
1.75E-01,5.60E-03
1.75E-01,-6.80E-03
1.75E-01,6.00E-03
1.75E-01,2.40E-03
1.76E-01,-1.24E-02
1.76E-01,4.80E-03
1.76E-01,-3.60E-03
1.76E-01,1.60E-02
1.76E-01,1.32E-02
1.77E-01,1.48E-02
1.77E-01,-6.00E-03
1.77E-01,1.56E-02
1.77E-01,-6.00E-03
1.77E-01,-9.20E-03
1.78E-01,1.80E-02
1.78E-01,8.40E-03
1.78E-01,-7.20E-03
1.78E-01,-9.60E-03
1.78E-01,-9.20E-03
1.79E-01,8.80E-03
1.79E-01,5.60E-03
1.79E-01,1.08E-02
1.79E-01,-2.80E-03
1.79E-01,4.00E-03
1.80E-01,5.20E-03
1.80E-01,1.60E-03
1.80E-01,-5.60E-03
1.80E-01,6.00E-03
1.80E-01,2.56E-02
1.81E-01,-5.20E-03
1.81E-01,-1.52E-02
1.81E-01,-1.16E-02
1.81E-01,3.60E-03
1.81E-01,5.20E-03
1.82E-01,2.04E-02
1.82E-01,-8.00E-03
1.82E-01,-1.84E-02
1.82E-01,-3.20E-03
1.82E-01,-9.60E-03
1.83E-01,-8.00E-03
1.83E-01,4.40E-03
1.83E-01,5.20E-03
1.83E-01,2.08E-02
1.83E-01,2.04E-02
1.84E-01,-2.64E-02
1.84E-01,5.60E-03
1.84E-01,1.68E-02
1.84E-01,-3.60E-03
1.84E-01,-8.40E-03
1.85E-01,-1.20E-02
1.85E-01,-8.80E-03
1.85E-01,4.00E-03
1.85E-01,2.40E-03
1.85E-01,1.60E-02
1.86E-01,1.96E-02
1.86E-01,2.32E-02
1.86E-01,3.20E-03
1.86E-01,2.36E-02
1.86E-01,-4.40E-03
1.87E-01,1.80E-02
1.87E-01,-4.40E-03
1.87E-01,-1.44E-02
1.87E-01,-9.20E-03
1.87E-01,-1.32E-02
1.88E-01,6.00E-03
1.88E-01,1.12E-02
1.88E-01,1.28E-02
1.88E-01,-1.76E-02
1.88E-01,4.80E-03
1.89E-01,-3.60E-03
1.89E-01,-2.08E-02
1.89E-01,-1.52E-02
1.89E-01,-1.52E-02
1.89E-01,-1.64E-02
1.90E-01,3.60E-03
1.90E-01,6.40E-03
1.90E-01,1.00E-02
1.90E-01,1.08E-02
1.90E-01,-2.20E-02
1.91E-01,-2.20E-02
1.91E-01,6.80E-03
1.91E-01,-5.20E-03
1.91E-01,-1.56E-02
1.91E-01,2.36E-02
1.92E-01,1.24E-02
1.92E-01,-4.00E-03
1.92E-01,4.40E-03
1.92E-01,-4.80E-03
1.92E-01,2.04E-02
1.93E-01,-2.92E-02
1.93E-01,-8.40E-03
1.93E-01,-2.04E-02
1.93E-01,3.20E-03
1.93E-01,-7.20E-03
1.94E-01,-5.60E-03
1.94E-01,2.52E-02
1.94E-01,-3.20E-03
1.94E-01,-8.40E-03
1.94E-01,-6.40E-03
1.95E-01,1.12E-02
1.95E-01,-8.00E-03
1.95E-01,6.80E-03
1.95E-01,-2.80E-03
1.95E-01,2.40E-02
1.96E-01,-4.80E-03
1.96E-01,8.80E-03
1.96E-01,-1.44E-02
1.96E-01,2.40E-03
1.96E-01,8.40E-03
1.97E-01,-7.20E-03
1.97E-01,9.60E-03
1.97E-01,-7.20E-03
1.97E-01,6.40E-03
1.97E-01,2.76E-02
1.98E-01,-9.60E-03
1.98E-01,-9.60E-03
1.98E-01,-8.80E-03
1.98E-01,-1.60E-03
1.98E-01,-1.64E-02
1.99E-01,-1.60E-03
1.99E-01,-4.00E-03
1.99E-01,-3.60E-03
1.99E-01,-6.40E-03
1.99E-01,5.20E-03
2.00E-01,3.20E-03
2.00E-01,9.20E-03
2.00E-01,2.00E-03
2.00E-01,1.16E-02
2.00E-01,1.96E-02
2.01E-01,7.60E-03
2.01E-01,-1.08E-02
2.01E-01,-1.72E-02
2.01E-01,4.40E-03
2.01E-01,1.68E-02
2.02E-01,1.60E-03
2.02E-01,7.20E-03
2.02E-01,6.40E-03
2.02E-01,2.76E-02
2.02E-01,-1.20E-02
2.03E-01,4.40E-03
2.03E-01,-8.80E-03
2.03E-01,-1.20E-02
2.03E-01,-9.60E-03
2.03E-01,1.48E-02
2.04E-01,-2.40E-02
2.04E-01,1.80E-02
2.04E-01,9.20E-03
2.04E-01,5.60E-03
2.04E-01,6.80E-03
2.05E-01,-1.80E-02
2.05E-01,-2.40E-03
2.05E-01,4.80E-03
2.05E-01,-1.40E-02
2.05E-01,3.20E-03
2.06E-01,-2.36E-02
2.06E-01,-4.80E-03
2.06E-01,-1.08E-02
2.06E-01,2.40E-03
2.06E-01,4.00E-03
2.07E-01,-2.24E-02
2.07E-01,-4.40E-03
2.07E-01,1.84E-02
2.07E-01,4.80E-03
2.07E-01,-1.00E-02
2.08E-01,-1.04E-02
2.08E-01,-3.60E-03
2.08E-01,8.80E-03
2.08E-01,1.20E-02
2.08E-01,1.44E-02
2.09E-01,-1.08E-02
2.09E-01,4.00E-03
2.09E-01,-1.24E-02
2.09E-01,2.40E-03
2.09E-01,1.72E-02
2.10E-01,2.80E-03
2.10E-01,4.80E-03
2.10E-01,4.80E-03
2.10E-01,2.04E-02
2.10E-01,-1.68E-02
2.11E-01,6.80E-03
2.11E-01,-1.52E-02
2.11E-01,5.60E-03
2.11E-01,4.00E-03
2.11E-01,3.20E-03
2.12E-01,2.80E-03
2.12E-01,-1.28E-02
2.12E-01,1.96E-02
2.12E-01,-4.40E-03
2.12E-01,2.80E-03
2.13E-01,3.20E-03
